{
  "testId" : "1-z1mobile.gspec",
  "name" : "z1Mobile.gspec",
  "report" : {
    "nodes" : [ {
      "name" : "Simple check",
      "status" : "info",
      "nodes" : [ {
        "name" : "check  z1Mobile.gspec --url http://localhost/z1.html --size 480x768 --htmlreport izvjestajMobitel",
        "status" : "info",
        "nodes" : [ {
          "name" : "Check layout: z1Mobile.gspec included tags: ",
          "status" : "info",
          "time" : 1636825678695,
          "sections" : [ {
            "name" : "Width section",
            "place" : {
              "filePath" : "z1Mobile.gspec",
              "lineNumber" : 9
            },
            "objects" : [ {
              "name" : "meni",
              "specs" : [ {
                "status" : "info",
                "place" : {
                  "filePath" : "z1Mobile.gspec",
                  "lineNumber" : 11
                },
                "name" : "width 98 to 100 % of body/width",
                "meta" : [ {
                  "from" : {
                    "object" : "meni",
                    "edge" : "left"
                  },
                  "to" : {
                    "object" : "meni",
                    "edge" : "right"
                  },
                  "expectedDistance" : "98 to 100% [442 to 452px]",
                  "realDistance" : "100% [452px]"
                } ],
                "highlight" : [ "meni" ]
              } ]
            }, {
              "name" : "grupelnk",
              "specs" : [ {
                "status" : "info",
                "place" : {
                  "filePath" : "z1Mobile.gspec",
                  "lineNumber" : 13
                },
                "name" : "width 98 to 100 % of body/width",
                "meta" : [ {
                  "from" : {
                    "object" : "grupelnk",
                    "edge" : "left"
                  },
                  "to" : {
                    "object" : "grupelnk",
                    "edge" : "right"
                  },
                  "expectedDistance" : "98 to 100% [442 to 452px]",
                  "realDistance" : "100% [452px]"
                } ],
                "highlight" : [ "grupelnk" ]
              } ]
            }, {
              "name" : "vjezbelnk",
              "specs" : [ {
                "status" : "info",
                "place" : {
                  "filePath" : "z1Mobile.gspec",
                  "lineNumber" : 15
                },
                "name" : "width 98 to 100 % of body/width",
                "meta" : [ {
                  "from" : {
                    "object" : "vjezbelnk",
                    "edge" : "left"
                  },
                  "to" : {
                    "object" : "vjezbelnk",
                    "edge" : "right"
                  },
                  "expectedDistance" : "98 to 100% [442 to 452px]",
                  "realDistance" : "100% [452px]"
                } ],
                "highlight" : [ "vjezbelnk" ]
              } ]
            }, {
              "name" : "studenti",
              "specs" : [ {
                "status" : "info",
                "place" : {
                  "filePath" : "z1Mobile.gspec",
                  "lineNumber" : 17
                },
                "name" : "width 98 to 100 % of body/width",
                "meta" : [ {
                  "from" : {
                    "object" : "studenti",
                    "edge" : "left"
                  },
                  "to" : {
                    "object" : "studenti",
                    "edge" : "right"
                  },
                  "expectedDistance" : "98 to 100% [442 to 452px]",
                  "realDistance" : "100% [452px]"
                } ],
                "highlight" : [ "studenti" ]
              } ]
            }, {
              "name" : "grupe",
              "specs" : [ {
                "status" : "info",
                "place" : {
                  "filePath" : "z1Mobile.gspec",
                  "lineNumber" : 19
                },
                "name" : "width 98 to 100 % of body/width",
                "meta" : [ {
                  "from" : {
                    "object" : "grupe",
                    "edge" : "left"
                  },
                  "to" : {
                    "object" : "grupe",
                    "edge" : "right"
                  },
                  "expectedDistance" : "98 to 100% [442 to 452px]",
                  "realDistance" : "100% [452px]"
                } ],
                "highlight" : [ "grupe" ]
              } ]
            } ]
          }, {
            "name" : "Inside section",
            "place" : {
              "filePath" : "z1Mobile.gspec",
              "lineNumber" : 23
            },
            "objects" : [ {
              "name" : "grupelnk",
              "specs" : [ {
                "status" : "info",
                "place" : {
                  "filePath" : "z1Mobile.gspec",
                  "lineNumber" : 25
                },
                "name" : "inside meni",
                "meta" : [ ],
                "highlight" : [ "grupelnk", "meni" ]
              } ]
            }, {
              "name" : "vjezbelnk",
              "specs" : [ {
                "status" : "info",
                "place" : {
                  "filePath" : "z1Mobile.gspec",
                  "lineNumber" : 27
                },
                "name" : "inside meni",
                "meta" : [ ],
                "highlight" : [ "vjezbelnk", "meni" ]
              } ]
            } ]
          }, {
            "name" : "Above section",
            "place" : {
              "filePath" : "z1Mobile.gspec",
              "lineNumber" : 33
            },
            "objects" : [ {
              "name" : "meni",
              "specs" : [ {
                "status" : "info",
                "place" : {
                  "filePath" : "z1Mobile.gspec",
                  "lineNumber" : 35
                },
                "name" : "above studenti",
                "meta" : [ {
                  "from" : {
                    "object" : "meni",
                    "edge" : "bottom"
                  },
                  "to" : {
                    "object" : "studenti",
                    "edge" : "top"
                  },
                  "expectedDistance" : ">= 0px",
                  "realDistance" : "183px"
                } ],
                "highlight" : [ "meni", "studenti" ]
              }, {
                "status" : "info",
                "place" : {
                  "filePath" : "z1Mobile.gspec",
                  "lineNumber" : 37
                },
                "name" : "above grupe",
                "meta" : [ {
                  "from" : {
                    "object" : "meni",
                    "edge" : "bottom"
                  },
                  "to" : {
                    "object" : "grupe",
                    "edge" : "top"
                  },
                  "expectedDistance" : ">= 0px",
                  "realDistance" : "0px"
                } ],
                "highlight" : [ "meni", "grupe" ]
              } ]
            }, {
              "name" : "grupelnk",
              "specs" : [ {
                "status" : "info",
                "place" : {
                  "filePath" : "z1Mobile.gspec",
                  "lineNumber" : 39
                },
                "name" : "above studenti",
                "meta" : [ {
                  "from" : {
                    "object" : "grupelnk",
                    "edge" : "bottom"
                  },
                  "to" : {
                    "object" : "studenti",
                    "edge" : "top"
                  },
                  "expectedDistance" : ">= 0px",
                  "realDistance" : "209px"
                } ],
                "highlight" : [ "grupelnk", "studenti" ]
              }, {
                "status" : "info",
                "place" : {
                  "filePath" : "z1Mobile.gspec",
                  "lineNumber" : 41
                },
                "name" : "above grupe",
                "meta" : [ {
                  "from" : {
                    "object" : "grupelnk",
                    "edge" : "bottom"
                  },
                  "to" : {
                    "object" : "grupe",
                    "edge" : "top"
                  },
                  "expectedDistance" : ">= 0px",
                  "realDistance" : "26px"
                } ],
                "highlight" : [ "grupelnk", "grupe" ]
              } ]
            }, {
              "name" : "vjezbelnk",
              "specs" : [ {
                "status" : "info",
                "place" : {
                  "filePath" : "z1Mobile.gspec",
                  "lineNumber" : 43
                },
                "name" : "above studenti",
                "meta" : [ {
                  "from" : {
                    "object" : "vjezbelnk",
                    "edge" : "bottom"
                  },
                  "to" : {
                    "object" : "studenti",
                    "edge" : "top"
                  },
                  "expectedDistance" : ">= 0px",
                  "realDistance" : "191px"
                } ],
                "highlight" : [ "vjezbelnk", "studenti" ]
              }, {
                "status" : "info",
                "place" : {
                  "filePath" : "z1Mobile.gspec",
                  "lineNumber" : 45
                },
                "name" : "above grupe",
                "meta" : [ {
                  "from" : {
                    "object" : "vjezbelnk",
                    "edge" : "bottom"
                  },
                  "to" : {
                    "object" : "grupe",
                    "edge" : "top"
                  },
                  "expectedDistance" : ">= 0px",
                  "realDistance" : "8px"
                } ],
                "highlight" : [ "vjezbelnk", "grupe" ]
              } ]
            }, {
              "name" : "grupe",
              "specs" : [ {
                "status" : "info",
                "place" : {
                  "filePath" : "z1Mobile.gspec",
                  "lineNumber" : 47
                },
                "name" : "above studenti",
                "meta" : [ {
                  "from" : {
                    "object" : "grupe",
                    "edge" : "bottom"
                  },
                  "to" : {
                    "object" : "studenti",
                    "edge" : "top"
                  },
                  "expectedDistance" : ">= 0px",
                  "realDistance" : "0px"
                } ],
                "highlight" : [ "grupe", "studenti" ]
              } ]
            } ]
          }, {
            "name" : "Below section",
            "place" : {
              "filePath" : "z1Mobile.gspec",
              "lineNumber" : 49
            },
            "objects" : [ {
              "name" : "studenti",
              "specs" : [ {
                "status" : "info",
                "place" : {
                  "filePath" : "z1Mobile.gspec",
                  "lineNumber" : 51
                },
                "name" : "below meni",
                "meta" : [ {
                  "from" : {
                    "object" : "studenti",
                    "edge" : "top"
                  },
                  "to" : {
                    "object" : "meni",
                    "edge" : "bottom"
                  },
                  "expectedDistance" : ">= 0px",
                  "realDistance" : "183px"
                } ],
                "highlight" : [ "studenti", "meni" ]
              }, {
                "status" : "info",
                "place" : {
                  "filePath" : "z1Mobile.gspec",
                  "lineNumber" : 55
                },
                "name" : "below grupelnk",
                "meta" : [ {
                  "from" : {
                    "object" : "studenti",
                    "edge" : "top"
                  },
                  "to" : {
                    "object" : "grupelnk",
                    "edge" : "bottom"
                  },
                  "expectedDistance" : ">= 0px",
                  "realDistance" : "209px"
                } ],
                "highlight" : [ "studenti", "grupelnk" ]
              }, {
                "status" : "info",
                "place" : {
                  "filePath" : "z1Mobile.gspec",
                  "lineNumber" : 59
                },
                "name" : "below vjezbelnk",
                "meta" : [ {
                  "from" : {
                    "object" : "studenti",
                    "edge" : "top"
                  },
                  "to" : {
                    "object" : "vjezbelnk",
                    "edge" : "bottom"
                  },
                  "expectedDistance" : ">= 0px",
                  "realDistance" : "191px"
                } ],
                "highlight" : [ "studenti", "vjezbelnk" ]
              }, {
                "status" : "info",
                "place" : {
                  "filePath" : "z1Mobile.gspec",
                  "lineNumber" : 63
                },
                "name" : "below grupe",
                "meta" : [ {
                  "from" : {
                    "object" : "studenti",
                    "edge" : "top"
                  },
                  "to" : {
                    "object" : "grupe",
                    "edge" : "bottom"
                  },
                  "expectedDistance" : ">= 0px",
                  "realDistance" : "0px"
                } ],
                "highlight" : [ "studenti", "grupe" ]
              } ]
            }, {
              "name" : "grupe",
              "specs" : [ {
                "status" : "info",
                "place" : {
                  "filePath" : "z1Mobile.gspec",
                  "lineNumber" : 53
                },
                "name" : "below meni",
                "meta" : [ {
                  "from" : {
                    "object" : "grupe",
                    "edge" : "top"
                  },
                  "to" : {
                    "object" : "meni",
                    "edge" : "bottom"
                  },
                  "expectedDistance" : ">= 0px",
                  "realDistance" : "0px"
                } ],
                "highlight" : [ "grupe", "meni" ]
              }, {
                "status" : "info",
                "place" : {
                  "filePath" : "z1Mobile.gspec",
                  "lineNumber" : 57
                },
                "name" : "below grupelnk",
                "meta" : [ {
                  "from" : {
                    "object" : "grupe",
                    "edge" : "top"
                  },
                  "to" : {
                    "object" : "grupelnk",
                    "edge" : "bottom"
                  },
                  "expectedDistance" : ">= 0px",
                  "realDistance" : "26px"
                } ],
                "highlight" : [ "grupe", "grupelnk" ]
              }, {
                "status" : "info",
                "place" : {
                  "filePath" : "z1Mobile.gspec",
                  "lineNumber" : 61
                },
                "name" : "below vjezbelnk",
                "meta" : [ {
                  "from" : {
                    "object" : "grupe",
                    "edge" : "top"
                  },
                  "to" : {
                    "object" : "vjezbelnk",
                    "edge" : "bottom"
                  },
                  "expectedDistance" : ">= 0px",
                  "realDistance" : "8px"
                } ],
                "highlight" : [ "grupe", "vjezbelnk" ]
              } ]
            } ]
          }, {
            "name" : "Visible section",
            "place" : {
              "filePath" : "z1Mobile.gspec",
              "lineNumber" : 64
            },
            "objects" : [ {
              "name" : "meni",
              "specs" : [ {
                "status" : "info",
                "place" : {
                  "filePath" : "z1Mobile.gspec",
                  "lineNumber" : 66
                },
                "name" : "visible",
                "highlight" : [ "meni" ]
              } ]
            }, {
              "name" : "grupelnk",
              "specs" : [ {
                "status" : "info",
                "place" : {
                  "filePath" : "z1Mobile.gspec",
                  "lineNumber" : 68
                },
                "name" : "visible",
                "highlight" : [ "grupelnk" ]
              } ]
            }, {
              "name" : "vjezbelnk",
              "specs" : [ {
                "status" : "info",
                "place" : {
                  "filePath" : "z1Mobile.gspec",
                  "lineNumber" : 70
                },
                "name" : "visible",
                "highlight" : [ "vjezbelnk" ]
              } ]
            }, {
              "name" : "studenti",
              "specs" : [ {
                "status" : "info",
                "place" : {
                  "filePath" : "z1Mobile.gspec",
                  "lineNumber" : 72
                },
                "name" : "visible",
                "highlight" : [ "studenti" ]
              } ]
            }, {
              "name" : "grupe",
              "specs" : [ {
                "status" : "info",
                "place" : {
                  "filePath" : "z1Mobile.gspec",
                  "lineNumber" : 74
                },
                "name" : "visible",
                "highlight" : [ "grupe" ]
              } ]
            } ]
          }, {
            "name" : "Inside partly section",
            "place" : {
              "filePath" : "z1Mobile.gspec",
              "lineNumber" : 76
            },
            "objects" : [ {
              "name" : "meni",
              "specs" : [ {
                "status" : "info",
                "place" : {
                  "filePath" : "z1Mobile.gspec",
                  "lineNumber" : 78
                },
                "name" : "inside partly body ~0px left, ~0px top",
                "meta" : [ {
                  "from" : {
                    "object" : "meni",
                    "edge" : "left"
                  },
                  "to" : {
                    "object" : "body",
                    "edge" : "left"
                  },
                  "expectedDistance" : "-2 to 2px",
                  "realDistance" : "0px"
                }, {
                  "from" : {
                    "object" : "meni",
                    "edge" : "top"
                  },
                  "to" : {
                    "object" : "body",
                    "edge" : "top"
                  },
                  "expectedDistance" : "-2 to 2px",
                  "realDistance" : "0px"
                } ],
                "highlight" : [ "meni", "body" ]
              } ]
            } ]
          } ],
          "objects" : {
            "meni" : {
              "area" : [ 8, 8, 452, 100 ]
            },
            "grupelnk" : {
              "area" : [ 8, 64, 452, 18 ]
            },
            "body" : {
              "area" : [ 8, 8, 452, 520 ]
            },
            "vjezbelnk" : {
              "area" : [ 8, 82, 452, 18 ]
            },
            "grupe" : {
              "area" : [ 8, 108, 452, 183 ]
            },
            "studenti" : {
              "area" : [ 8, 291, 452, 237 ]
            }
          },
          "screenshot" : "layout-1-screenshot.png",
          "type" : "layout"
        } ],
        "time" : 1636825675161,
        "type" : "node"
      } ],
      "time" : 1636825668358,
      "type" : "node"
    } ]
  }
}